{
  "data": [
    {
      "id": 1,
      "attributes": {
        "slug": "hollow-knight",
        "title": "Hollow Knight",
        "subtitle": "A Sublime Journey Through an Enigmatic World",
        "publishedAt": "2023-05-16T11:00:00.000Z",
        "body": "__Hollow Knight__, developed by _Team Cherry_, is an indie gem that has captivated the hearts of gamers since its release. With its atmospheric exploration, challenging gameplay, and beautifully crafted world, it offers an experience that is both haunting and enchanting. Prepare to embark on an unforgettable adventure in the dark and mysterious kingdom of Hallownest.\n\n### Gameplay\nHollow Knight boasts a meticulously designed 2D metroidvania gameplay that strikes a perfect balance between accessibility and difficulty. Players control a nameless knight who wields a nail as a weapon, venturing into sprawling interconnected environments teeming with perilous enemies and intricate platforming challenges. The combat mechanics are tight and responsive, rewarding skillful timing and strategic approaches. As you progress, you'll encounter numerous upgrades and abilities that enhance your exploration and combat prowess, adding depth to the gameplay and encouraging further exploration.\n\n### World Design\nHallownest is an atmospheric and visually stunning world, brimming with a hauntingly beautiful art style. From the desolate ruins to the eerie fungal forests and ancient cities, each area is exquisitely detailed and filled with a sense of melancholic wonder. The world is interconnected, with hidden paths, secrets, and shortcuts that encourage thorough exploration. Combined with a haunting musical score, the game effortlessly immerses you in its ethereal ambiance, making every step a captivating experience.\n\n### Story and Lore\nHollow Knight weaves a rich and enigmatic narrative that is gradually unveiled as you delve deeper into Hallownest. The lore is delivered subtly through cryptic dialogue, environmental storytelling, and encounters with intriguing characters, allowing players to piece together the history and mythology of this crumbling kingdom. The game offers a sense of discovery and wonder, rewarding those who take the time to uncover its hidden secrets.\n\n### Challenge and Progression\nWhile Hollow Knight presents a fair challenge, it can be quite demanding, testing your skills and perseverance. From tough boss battles to intricate platforming sequences, the game keeps you on your toes and pushes you to improve. However, with every defeat comes a lesson learned, making each victory all the more satisfying. The sense of progression is palpable as you acquire new abilities, confront stronger adversaries, and unveil the secrets of Hallownest.\n\n### Conclusion\nHollow Knight is an exceptional game that shines through its atmospheric world, challenging gameplay, and captivating storytelling. Its combination of tight controls, immersive visuals, and haunting soundtrack creates an experience that is both beautiful and haunting. If you're a fan of metroidvanias or simply seeking an adventure that will stay with you long after the credits roll, Hollow Knight is an absolute must-play. Prepare to lose yourself in the depths of Hallownest and discover a truly unforgettable journey.\n",
        "image": {
          "data": {
            "id": 1,
            "attributes": {
              "url": "/uploads/hollow_knight_da5257a59c.jpg"
            }
          }
        }
      }
    },
    {
      "id": 2,
      "attributes": {
        "slug": "stardew-valley",
        "title": "Stardew Valley",
        "subtitle": "A Tranquil Oasis of Farming and Adventure",
        "publishedAt": "2023-05-09T11:00:00.000Z",
        "body": "__Stardew Valley__, developed by _Eric Barone (ConcernedApe)_, is a charming and immersive farming simulator that has captivated the hearts of gamers since its release. With its delightful pixel art, enchanting soundtrack, and an abundance of activities to engage in, this indie gem offers a tranquil oasis in the bustling world of video games.\n\nAt its core, Stardew Valley is about building a thriving farm from scratch. Players inherit a run-down plot of land and are tasked with transforming it into a prosperous haven. From sowing seeds and tending to crops to raising animals and crafting useful tools, the game beautifully captures the essence of the agrarian lifestyle. With each passing season, the landscape evolves, presenting new opportunities and challenges, ensuring a continuous sense of growth and progression.\n\nOne of the game's greatest strengths is its emphasis on freedom and choice. Stardew Valley allows players to shape their virtual lives to their liking. Whether you wish to become a master farmer, delve into the mysteries of the local mine, forge lasting relationships with the diverse and lovable townsfolk, or embark on daring adventures in search of rare artifacts, the possibilities are nearly endless.\n\nThe sense of community in Stardew Valley is heartwarming. Interacting with the town's inhabitants creates a sense of belonging as their stories unfold over time. Each character possesses a unique personality, backstory, and set of preferences, making friendships and romantic relationships feel meaningful and rewarding. The writing is superb, infusing the game with humor, charm, and occasional moments of introspection.\n\nBeyond the idyllic farm life, Stardew Valley offers a surprising amount of depth and exploration. From the depths of the mine, where valuable resources and dangerous creatures lurk, to the mysterious secrets hidden within the surrounding wilderness, there is always something new to discover. The introduction of seasonal festivals and events adds a touch of excitement and variety, ensuring that players are constantly engaged and rewarded for their efforts.\n\nFurthermore, Stardew Valley boasts excellent replayability. Multiple farm layouts, diverse character customization options, and a multitude of gameplay paths provide endless opportunities for players to shape their experiences. Whether you prefer a laid-back approach, focusing solely on farming and relationships, or a more adventurous playstyle, the game accommodates your desires.\n\nIn conclusion, Stardew Valley is a delightful masterpiece that transcends the boundaries of its genre. Its picturesque aesthetics, relaxing gameplay, rich characters, and open-ended nature make it an absolute joy to play. Whether you're a seasoned farmer or a newcomer to simulation games, Stardew Valley promises countless hours of enchantment and a rejuvenating escape from the pressures of reality. Don't miss the chance to experience this extraordinary virtual world.\n",
        "image": {
          "data": {
            "id": 2,
            "attributes": {
              "url": "/uploads/stardew_valley_a268200e49.jpg"
            }
          }
        }
      }
    },
    {
      "id": 3,
      "attributes": {
        "slug": "hellblade-senuas-sacrifice",
        "title": "Hellblade: Senua's Sacrifice",
        "subtitle": "A Hauntingly Captivating Journey",
        "publishedAt": "2023-05-18T11:00:00.000Z",
        "body": "__Hellblade: Senua's Sacrifice__ is an extraordinary game that blurs the boundaries between video games and art. Developed by _Ninja Theory_, this dark fantasy action-adventure takes players on an emotional and psychological rollercoaster through the troubled mind of its protagonist. With its stunning visuals, innovative gameplay mechanics, and a deep exploration of mental health, Hellblade offers an unforgettable gaming experience unlike anything else.\n\n### Graphics and Atmosphere\nFrom the moment you step into Senua's world, you are immediately engulfed by its haunting atmosphere. The game's graphics are nothing short of breathtaking, with meticulously detailed environments that convey a sense of dread and despair. The use of lighting, weather effects, and atmospheric audio design work in perfect harmony to create an unnerving ambiance that lingers long after you've put down the controller.\n\n### Narrative and Storytelling\nAt its core, Hellblade is a deeply personal and introspective journey. The narrative revolves around Senua, a Celtic warrior afflicted by psychosis, as she embarks on a quest through a nightmarish realm inspired by Norse mythology. The storytelling is masterfully executed, weaving together themes of loss, trauma, and self-discovery. Through Senua's experiences, the game delves into the complexities of mental health with empathy and sensitivity, shedding light on a topic rarely explored in such depth within the medium.\n\n### Gameplay and Combat\nHellblade strikes a fine balance between atmospheric exploration and intense combat sequences. As Senua, you'll navigate eerie landscapes, solve puzzles, and uncover hidden secrets. The combat is visceral and demanding, requiring precise timing and strategic thinking. It effectively reflects Senua's inner turmoil, immersing players in her struggles. The game cleverly incorporates the concept of \"the darkness\" into its gameplay mechanics, creating a sense of unease and tension that keeps you on edge throughout.\n\n### Audio and Sound Design\nOne of Hellblade's standout features is its exceptional audio design. The use of binaural audio techniques delivers an immersive experience, with whispers, voices, and ambient sounds swirling around you, perfectly simulating Senua's auditory hallucinations. The hauntingly beautiful score, composed by David Garcia, further enhances the emotional impact of each scene, accentuating the game's intense moments and quieter introspective sequences.\n\n### Conclusion\nHellblade: Senua's Sacrifice is a masterpiece of storytelling and artistic expression. Its breathtaking visuals, immersive atmosphere, and thought-provoking exploration of mental health combine to create an unparalleled gaming experience. Ninja Theory's dedication to authenticity and their meticulous attention to detail shine through in every aspect of the game. For those seeking a unique and emotionally resonant journey, Hellblade: Senua's Sacrifice is an absolute must-play that will leave a lasting impression on both gamers and art enthusiasts alike.\n",
        "image": {
          "data": {
            "id": 3,
            "attributes": {
              "url": "/uploads/hellblade_senuas_sacrifice_56b4c7ac75.jpg"
            }
          }
        }
      }
    },
    {
      "id": 4,
      "attributes": {
        "slug": "dont-starve-together",
        "title": "Don't Starve Together",
        "subtitle": "Survive Together or Perish Alone",
        "publishedAt": "2023-05-11T11:00:00.000Z",
        "body": "__Don't Starve Together__ is a gripping and challenging multiplayer survival game that will put your teamwork and survival skills to the test. Developed by _Klei Entertainment_, this standalone expansion to the original Don't Starve offers an enhanced experience as you join forces with friends or strangers to endure a hostile world filled with darkness, monsters, and of course, the ever-looming threat of starvation.\n\n### Gameplay\nDon't Starve Together takes the core mechanics of its predecessor and amplifies them by introducing cooperative multiplayer gameplay. Whether you're playing with friends or diving into the world with strangers, communication and collaboration are essential to surviving the harsh wilderness. Each player takes on the role of a unique character with distinct abilities, encouraging teamwork and specialization for a balanced group dynamic.\n\nThe game world is procedurally generated, providing endless opportunities for exploration. From eerie forests to treacherous caves, you'll encounter a wide array of biomes teeming with resources, creatures, and mysteries to unravel. Collecting food, crafting tools, and building shelters are essential for your survival, but be wary of the time-sensitive seasons, hostile creatures, and the sanity-draining darkness that threatens to engulf you.\n\n### Graphics and Atmosphere\nDon't Starve Together boasts a captivating art style, resembling a Tim Burton-esque nightmare filled with hand-drawn visuals and macabre charm. The dark and quirky aesthetic immerses you in its gloomy and whimsical atmosphere, adding depth to the game's unsettling yet enchanting world. The haunting soundtrack further enhances the sense of foreboding, evoking emotions that range from unease to wonder as you navigate the dangers that lie ahead.\n\n### Community and Updates\nOne of the game's biggest strengths lies in its active and passionate community. With dedicated servers and mod support, Don't Starve Together offers a vast array of user-created content, from new characters and biomes to challenging game modes. Klei Entertainment consistently releases updates and patches, addressing issues and introducing new features to keep the experience fresh and exciting for both new and seasoned players.\n\n### Conclusion\nDon't Starve Together delivers an enthralling cooperative survival experience that will keep you on the edge of your seat. With its unique art style, challenging gameplay, and emphasis on teamwork, the game offers countless hours of exploration, strategy, and shared triumphs. Just remember, survival isn't guaranteed, and the relentless world of Don't Starve Together will test your wits and resilience at every turn. So grab your friends, huddle around the campfire, and embark on a journey where cooperation is key to conquering the darkness.\n",
        "image": {
          "data": {
            "id": 4,
            "attributes": {
              "url": "/uploads/dont_starve_together_11e6d2baed.jpg"
            }
          }
        }
      }
    },
    {
      "id": 5,
      "attributes": {
        "slug": "fall-guys",
        "title": "Fall Guys: Ultimate Knockout",
        "subtitle": "A Whimsical Party Game for Endless Fun",
        "publishedAt": "2023-05-27T11:00:00.000Z",
        "body": "__Fall Guys: Ultimate Knockout__ is a delightful and addictive multiplayer party game that takes the gaming world by storm. Developed by _Mediatonic_, this colorful and whimsical title injects a breath of fresh air into the competitive genre, offering an experience that is both chaotic and charming.\n\nAt its core, Fall Guys is a battle royale-style game, but it cleverly replaces bullets and bloodshed with bumbling jellybean-like characters navigating obstacle courses and hilarious challenges. The objective is simple: outlast other players in a series of mini-games until a sole winner emerges victorious. However, the journey to the crown is far from straightforward.\n\nOne of the game's strengths lies in its intuitive controls and accessibility. Fall Guys is incredibly easy to pick up and play, making it accessible to players of all skill levels. Whether you're a seasoned gamer or a casual player looking for some lighthearted fun, the game offers a low barrier to entry while still providing a satisfying level of challenge.\n\nThe vibrant and whimsical art style of Fall Guys adds to its appeal. The colorful costumes and the zany physics-based movements of the jellybean characters create a visually captivating experience. Each mini-game presents a new set of challenges, ranging from racing through obstacle courses to team-based competitions. The unpredictability of the game keeps players on their toes, leading to countless laugh-out-loud moments and memorable gaming sessions with friends.\n\nFall Guys thrives on its multiplayer component, encouraging friendly competition and collaboration. The game supports both online matchmaking and local multiplayer, fostering a sense of camaraderie and friendly rivalry among players. The sheer joy of triumphing over opponents or laughing off a collective failure creates a positive and infectious atmosphere that makes every match enjoyable.\n\nTo keep the experience fresh and engaging, Fall Guys features regular updates with new costumes, levels, and game modes. This ongoing support from the developers ensures that players will always have something new to discover and provides long-term replay value.\n\nDespite its numerous strengths, Fall Guys isn't without its minor flaws. Occasionally, the game's physics can lead to frustrating and seemingly unfair outcomes, but these moments are overshadowed by the overall charm and entertainment value it provides.\n\nIn conclusion, Fall Guys: Ultimate Knockout is a breath of fresh air in the gaming landscape. Its accessible gameplay, whimsical visuals, and addictive multiplayer make it an absolute blast to play. Whether you're looking for a quick session to unwind or a party game to enjoy with friends, Fall Guys guarantees a fun-filled experience that will keep you coming back for more.\n",
        "image": {
          "data": {
            "id": 5,
            "attributes": {
              "url": "/uploads/fall_guys_9f9b386677.jpg"
            }
          }
        }
      }
    },
    {
      "id": 6,
      "attributes": {
        "slug": "inside",
        "title": "INSIDE",
        "subtitle": "Dive Into the Enigmatic Abyss",
        "publishedAt": "2023-05-12T11:00:00.000Z",
        "body": "__INSIDE__ is a mesmerizing and thought-provoking puzzle-platformer that takes players on a dark and mysterious journey. Developed by _Playdead_, the masterminds behind the critically acclaimed \"Limbo,\" this game pushes the boundaries of interactive storytelling, delivering an unforgettable and immersive experience.\n\n### Gameplay\n\"INSIDE\" offers a unique blend of atmospheric exploration, clever puzzles, and platforming elements. From the very beginning, players are thrown into a gloomy world filled with eerie environments and an unsettling atmosphere. The game's minimalist controls allow for seamless navigation, keeping the focus on uncovering the secrets that lie within the shadows.\n\nThe puzzles in \"INSIDE\" are ingeniously crafted, requiring players to observe their surroundings, experiment with the environment, and think outside the box. The difficulty ramps up gradually, ensuring a satisfying sense of accomplishment with each successfully solved enigma. The seamless integration of puzzle-solving and platforming creates a harmonious gameplay flow that keeps players engaged from start to finish.\n\n### Story and Atmosphere\nOne of the standout aspects of \"INSIDE\" is its atmospheric storytelling. The game tells its narrative without any dialogue, relying solely on visual cues, haunting sound design, and masterful environmental storytelling. It leaves the interpretation of its enigmatic tale open to the players, inviting them to speculate and theorize about the underlying themes and messages.\n\nAs you progress deeper into the game, the suspense and tension intensify, accompanied by a growing sense of unease. The chilling ambiance and oppressive atmosphere create an unsettling experience, leaving you with a constant feeling of being watched and hunted. The game's clever use of lighting and sound elevates the immersion, making each step forward feel perilous and fraught with danger.\n\n### Visuals and Sound Design\n\"INSIDE\" showcases a captivating visual style that blends monochromatic hues with subtle splashes of color. The dark silhouettes against detailed backgrounds create a sense of depth and contrast, further enhancing the game's eerie atmosphere. The animations are smooth and polished, imbuing the characters and the environment with a lifelike quality.\n\nComplementing the visuals, the sound design in \"INSIDE\" is a masterclass in atmospheric audio. The haunting melodies, subtle ambient noises, and the absence of a traditional musical score add to the overall sense of unease and suspense. The audio cues effectively guide players through the game, heightening the emotional impact of key moments.\n\n### Conclusion\n\"INSIDE\" is an extraordinary gaming experience that effortlessly blends atmospheric storytelling, inventive gameplay, and striking aesthetics. It invites players to explore a dark and enigmatic world, unraveling its secrets through clever puzzles and captivating visuals. With its thought-provoking narrative, immersive atmosphere, and masterful execution, \"INSIDE\" stands as a testament to the power of video games as a medium for evoking emotions and engaging players in unique ways.",
        "image": {
          "data": {
            "id": 6,
            "attributes": {
              "url": "/uploads/inside_edd39ca199.jpg"
            }
          }
        }
      }
    }
  ],
  "meta": {
    "pagination": {
      "page": 1,
      "pageSize": 6,
      "pageCount": 5,
      "total": 25
    }
  }
}